PCBNEW-LibModule-V1  
# encoding utf-8
Units mm
$INDEX
CUI_PJ-102A
$EndINDEX
$MODULE CUI_PJ-102A
Po 0 0 0 15 00000000 00000000 ~~
Li CUI_PJ-102A
Cd 
Sc 00000000
At STD
Op 0 0 0
.SolderMask 0
.SolderPaste 0
T0 -4.66118 -6.78126 1.0024 1.0024 0 0.05 N V 21 "CUI_PJ-102A"
T1 -4.02171 5.78465 1.00167 1.00167 0 0.05 N V 21 "VAL**"
DS -6 0.8 -7 0.8 0.0001 28
DS -7 0.8 -7 -0.8 0.0001 28
DS -7 -0.8 -6 -0.8 0.0001 28
DS -6 -0.8 -6 0.8 0.0001 28
DS 0 0.8 -1 0.8 0.0001 28
DS -1 0.8 -1 -0.8 0.0001 28
DS -1 -0.8 0 -0.8 0.0001 28
DS 0 -0.8 0 0.8 0.0001 28
DS -4.3 -4.2 -4.3 -5.2 0.0001 28
DS -4.3 -5.2 -2.7 -5.2 0.0001 28
DS -2.7 -5.2 -2.7 -4.2 0.0001 28
DS -2.7 -4.2 -4.3 -4.2 0.0001 28
DS -7.2 -4.5 7.2 -4.5 0.127 24
DS 7.2 4.5 -7.2 4.5 0.127 24
DS -7.2 4.5 -7.2 -4.5 0.127 24
DS 7.2 -4.5 7.2 4.5 0.127 21
DS 7.2 4.5 -7.2 4.5 0.127 21
DS -7.2 -4.5 -5.35 -4.5 0.127 21
DS -7.2 4.5 -7.2 1.55 0.127 21
DS -1.75 -4.5 7.2 -4.5 0.127 21
DS -7.2 -1.45 -7.2 -4.5 0.127 21
DS -7.45 -4.75 -5.35 -4.75 0.05 26
DS -5.35 -4.75 -5.35 -5.8 0.05 26
DS -5.35 -5.8 -1.65 -5.8 0.05 26
DS -1.65 -5.8 -1.65 -4.75 0.05 26
DS -1.65 -4.75 7.5 -4.75 0.05 26
DS 7.5 -4.75 7.5 4.75 0.05 26
DS 7.5 4.75 -7.45 4.75 0.05 26
DS -7.45 4.75 -7.45 2.35 0.05 26
DC -8.1 0 -7.9 0 0.4 21
DS -7.45 -2.25 -7.45 -4.75 0.05 26
DS -7.45 -2.25 -7.55 -2.25 0.05 26
DS -7.55 -2.25 -7.55 2.35 0.05 26
DS -7.55 2.35 -7.45 2.35 0.05 26
DS 7.2 -4.5 7.2 4.5 0.127 24
$PAD
Sh "1" O 3.016 1.508 0 0 900
Dr 1 0 0
At STD N 00C0FFFF
.SolderMask 0
Ne 0 ""
Po -6.5 0
$EndPAD
$PAD
Sh "2" O 3.016 1.508 0 0 900
Dr 1 0 0
At STD N 00C0FFFF
.SolderMask 0
Ne 0 ""
Po -0.5 0
$EndPAD
$PAD
Sh "3" O 3.016 1.508 0 0 1800
Dr 1 0 0
At STD N 00C0FFFF
.SolderMask 0
Ne 0 ""
Po -3.5 -4.7
$EndPAD
$EndMODULE CUI_PJ-102A
