EESchema Schematic File Version 2
LIBS:Thru5-rescue
LIBS:power
LIBS:device
LIBS:switches
LIBS:relays
LIBS:motors
LIBS:transistors
LIBS:conn
LIBS:linear
LIBS:regul
LIBS:74xx
LIBS:cmos4000
LIBS:adc-dac
LIBS:memory
LIBS:xilinx
LIBS:microcontrollers
LIBS:dsp
LIBS:microchip
LIBS:analog_switches
LIBS:motorola
LIBS:texas
LIBS:intel
LIBS:audio
LIBS:interface
LIBS:digital-audio
LIBS:philips
LIBS:display
LIBS:cypress
LIBS:siliconi
LIBS:opto
LIBS:atmel
LIBS:contrib
LIBS:valves
LIBS:microchip_pic12mcu
LIBS:Thru5-cache
EELAYER 25 0
EELAYER END
$Descr USLetter 8500 11000 portrait
encoding utf-8
Sheet 1 1
Title "Midi_Thru_5_v1r1"
Date "2017-10-17"
Rev "1"
Comp "./qusw"
Comment1 ""
Comment2 ""
Comment3 ""
Comment4 ""
$EndDescr
$Comp
L GND #PWR01
U 1 1 59E75C2E
P 6600 5550
F 0 "#PWR01" H 6600 5300 50  0001 C CNN
F 1 "GND" H 6600 5400 50  0000 C CNN
F 2 "" H 6600 5550 50  0001 C CNN
F 3 "" H 6600 5550 50  0001 C CNN
	1    6600 5550
	1    0    0    -1  
$EndComp
$Comp
L 6N136-RESCUE-Thru5 U1
U 1 1 59E763B6
P 3350 5250
F 0 "U1" H 3150 5550 50  0000 L CNN
F 1 "6N138" H 3350 5550 50  0000 L CNN
F 2 "Housings_DIP:DIP-8_W7.62mm_Socket" H 3150 4950 50  0001 L CIN
F 3 "" H 3350 5250 50  0001 L CNN
	1    3350 5250
	1    0    0    -1  
$EndComp
$Comp
L D D2
U 1 1 59E765FD
P 2900 5200
F 0 "D2" H 2900 5300 50  0000 C CNN
F 1 "1N4148" H 2900 5100 50  0000 C CNN
F 2 "Diodes_THT:D_DO-35_SOD27_P7.62mm_Horizontal" H 2900 5200 50  0001 C CNN
F 3 "" H 2900 5200 50  0001 C CNN
	1    2900 5200
	0    1    1    0   
$EndComp
$Comp
L R R1
U 1 1 59E76A76
P 1900 5100
F 0 "R1" V 1980 5100 50  0000 C CNN
F 1 "220" V 1900 5100 50  0000 C CNN
F 2 "Resistors_THT:R_Axial_DIN0207_L6.3mm_D2.5mm_P10.16mm_Horizontal" V 1830 5100 50  0001 C CNN
F 3 "" H 1900 5100 50  0001 C CNN
	1    1900 5100
	1    0    0    -1  
$EndComp
$Comp
L VCC #PWR02
U 1 1 59E76CCA
P 3900 4800
F 0 "#PWR02" H 3900 4650 50  0001 C CNN
F 1 "VCC" H 3900 4950 50  0000 C CNN
F 2 "" H 3900 4800 50  0001 C CNN
F 3 "" H 3900 4800 50  0001 C CNN
	1    3900 4800
	1    0    0    -1  
$EndComp
$Comp
L R R3
U 1 1 59E76DA2
P 3900 5000
F 0 "R3" V 3980 5000 50  0000 C CNN
F 1 "470" V 3900 5000 50  0000 C CNN
F 2 "Resistors_THT:R_Axial_DIN0207_L6.3mm_D2.5mm_P10.16mm_Horizontal" V 3830 5000 50  0001 C CNN
F 3 "" H 3900 5000 50  0001 C CNN
	1    3900 5000
	1    0    0    -1  
$EndComp
$Comp
L GND #PWR03
U 1 1 59E78AFD
P 3800 5900
F 0 "#PWR03" H 3800 5650 50  0001 C CNN
F 1 "GND" H 3800 5750 50  0000 C CNN
F 2 "" H 3800 5900 50  0001 C CNN
F 3 "" H 3800 5900 50  0001 C CNN
	1    3800 5900
	1    0    0    -1  
$EndComp
$Comp
L R R2
U 1 1 59E69FEB
P 3800 5650
F 0 "R2" V 3880 5650 50  0000 C CNN
F 1 "4.7k" V 3800 5650 50  0000 C CNN
F 2 "Resistors_THT:R_Axial_DIN0207_L6.3mm_D2.5mm_P10.16mm_Horizontal" V 3730 5650 50  0001 C CNN
F 3 "" H 3800 5650 50  0001 C CNN
	1    3800 5650
	1    0    0    -1  
$EndComp
$Comp
L CP1 C1
U 1 1 59E7CCA8
P 2450 8300
F 0 "C1" H 2475 8400 50  0000 L CNN
F 1 "100u" H 2475 8200 50  0000 L CNN
F 2 "Capacitors_THT:CP_Radial_D6.3mm_P2.50mm" H 2450 8300 50  0001 C CNN
F 3 "" H 2450 8300 50  0001 C CNN
	1    2450 8300
	1    0    0    -1  
$EndComp
$Comp
L CP1 C3
U 1 1 59E7CDED
P 3650 8300
F 0 "C3" H 3675 8400 50  0000 L CNN
F 1 "100u" H 3675 8200 50  0000 L CNN
F 2 "Capacitors_THT:CP_Radial_D6.3mm_P2.50mm" H 3650 8300 50  0001 C CNN
F 3 "" H 3650 8300 50  0001 C CNN
	1    3650 8300
	1    0    0    -1  
$EndComp
$Comp
L VCC #PWR04
U 1 1 59E7D212
P 4250 7750
F 0 "#PWR04" H 4250 7600 50  0001 C CNN
F 1 "VCC" H 4250 7900 50  0000 C CNN
F 2 "" H 4250 7750 50  0001 C CNN
F 3 "" H 4250 7750 50  0001 C CNN
	1    4250 7750
	1    0    0    -1  
$EndComp
$Comp
L GND #PWR05
U 1 1 59E7D6D4
P 3150 8800
F 0 "#PWR05" H 3150 8550 50  0001 C CNN
F 1 "GND" H 3150 8650 50  0000 C CNN
F 2 "" H 3150 8800 50  0001 C CNN
F 3 "" H 3150 8800 50  0001 C CNN
	1    3150 8800
	1    0    0    -1  
$EndComp
$Comp
L Jack-DC J1
U 1 1 59E7F1C8
P 1350 8600
F 0 "J1" H 1350 8810 50  0000 C CNN
F 1 "Jack-DC" H 1350 8425 50  0000 C CNN
F 2 ".pretty:CUI_PJ-102A" H 1400 8560 50  0001 C CNN
F 3 "" H 1400 8560 50  0001 C CNN
	1    1350 8600
	1    0    0    -1  
$EndComp
NoConn ~ 1650 8600
$Comp
L PWR_FLAG #FLG06
U 1 1 59E7F4A1
P 2450 8700
F 0 "#FLG06" H 2450 8775 50  0001 C CNN
F 1 "PWR_FLAG" H 2450 8850 50  0000 C CNN
F 2 "" H 2450 8700 50  0001 C CNN
F 3 "" H 2450 8700 50  0001 C CNN
	1    2450 8700
	-1   0    0    1   
$EndComp
Text Notes 2350 5500 0    60   ~ 0
IN\n
NoConn ~ 2700 5550
$Comp
L PWR_FLAG #FLG07
U 1 1 59E8F5EE
P 2450 7850
F 0 "#FLG07" H 2450 7925 50  0001 C CNN
F 1 "PWR_FLAG" H 2450 8000 50  0000 C CNN
F 2 "" H 2450 7850 50  0001 C CNN
F 3 "" H 2450 7850 50  0001 C CNN
	1    2450 7850
	1    0    0    -1  
$EndComp
$Comp
L C C4
U 1 1 5B3D3BC3
P 4050 8300
F 0 "C4" H 4075 8400 50  0000 L CNN
F 1 "100n" H 4075 8200 50  0000 L CNN
F 2 "Capacitors_THT:C_Rect_L4.0mm_W2.5mm_P2.50mm" H 4088 8150 50  0001 C CNN
F 3 "" H 4050 8300 50  0001 C CNN
	1    4050 8300
	1    0    0    -1  
$EndComp
$Comp
L D D1
U 1 1 59E7DF9A
P 1900 8000
F 0 "D1" H 1900 8100 50  0000 C CNN
F 1 "1N4004" H 1900 7900 50  0000 C CNN
F 2 "Diodes_THT:D_DO-41_SOD81_P7.62mm_Horizontal" H 1900 8000 50  0001 C CNN
F 3 "" H 1900 8000 50  0001 C CNN
	1    1900 8000
	-1   0    0    1   
$EndComp
Wire Wire Line
	2700 5350 3050 5350
Wire Wire Line
	2100 5350 1900 5350
Wire Wire Line
	1900 4950 1900 4900
Wire Wire Line
	1900 4900 3050 4900
Wire Wire Line
	2900 4900 2900 5050
Wire Wire Line
	3900 4850 3900 4800
Wire Wire Line
	3650 5150 3800 5150
Wire Wire Line
	3800 5150 3800 5500
Wire Wire Line
	3650 5350 3900 5350
Wire Wire Line
	3900 5350 3900 5150
Connection ~ 3900 5350
Wire Wire Line
	3800 5800 3800 5900
Wire Wire Line
	3800 5850 3650 5850
Wire Wire Line
	3650 5850 3650 5450
Connection ~ 3800 5850
Wire Wire Line
	3650 8150 3650 8000
Connection ~ 3650 8000
Wire Wire Line
	4050 8000 4050 8150
Connection ~ 4050 8000
Wire Wire Line
	4250 8000 4250 7750
Wire Wire Line
	2450 7850 2450 8150
Connection ~ 2450 8000
Connection ~ 3150 8700
Wire Wire Line
	3150 8300 3150 8800
Wire Wire Line
	2450 8700 2450 8450
Connection ~ 2450 8700
Wire Wire Line
	3650 8700 3650 8450
Connection ~ 3650 8700
Connection ~ 4050 8700
Wire Wire Line
	3650 5050 3650 4850
Wire Wire Line
	3650 4850 3900 4850
Connection ~ 3900 4850
Connection ~ 2900 5350
Connection ~ 2900 4900
Wire Wire Line
	3050 4900 3050 5150
Wire Wire Line
	4050 8700 4050 8450
Wire Wire Line
	2050 8000 2750 8000
Wire Wire Line
	1650 8500 1650 8000
Wire Wire Line
	1650 8700 4050 8700
Wire Wire Line
	3550 8000 4250 8000
Wire Wire Line
	1650 8000 1750 8000
$Comp
L 74HC14 U3
U 1 1 5B3D6618
P 4350 5350
F 0 "U3" H 4500 5450 50  0000 C CNN
F 1 "74HC14" H 4550 5250 50  0000 C CNN
F 2 "Housings_DIP:DIP-14_W7.62mm_Socket" H 4350 5350 50  0001 C CNN
F 3 "" H 4350 5350 50  0001 C CNN
	1    4350 5350
	1    0    0    -1  
$EndComp
$Comp
L 74HC14 U3
U 2 1 5B3D69A7
P 5400 5350
F 0 "U3" H 5550 5450 50  0000 C CNN
F 1 "74HC14" H 5600 5250 50  0000 C CNN
F 2 "Housings_DIP:DIP-14_W7.62mm_Socket" H 5400 5350 50  0001 C CNN
F 3 "" H 5400 5350 50  0001 C CNN
	2    5400 5350
	1    0    0    -1  
$EndComp
Wire Wire Line
	4800 5350 4950 5350
$Comp
L R R4
U 1 1 5B3D768D
P 6000 5350
F 0 "R4" V 6080 5350 50  0000 C CNN
F 1 "220" V 6000 5350 50  0000 C CNN
F 2 "Resistors_THT:R_Axial_DIN0204_L3.6mm_D1.6mm_P7.62mm_Horizontal" V 5930 5350 50  0001 C CNN
F 3 "" H 6000 5350 50  0001 C CNN
	1    6000 5350
	0    -1   -1   0   
$EndComp
$Comp
L MIDI J2
U 1 1 5B3DB71C
P 2400 5450
F 0 "J2" H 2525 5675 50  0000 C CNN
F 1 "MIDI" H 2400 5200 50  0000 C CNN
F 2 ".pretty:CUI_SDS-50J" H 2400 5450 50  0001 C CNN
F 3 "" H 2400 5450 50  0001 C CNN
	1    2400 5450
	1    0    0    -1  
$EndComp
NoConn ~ 2100 5550
Wire Wire Line
	1900 5350 1900 5250
$Comp
L VCC #PWR08
U 1 1 5B3DE1E0
P 7400 5150
F 0 "#PWR08" H 7400 5000 50  0001 C CNN
F 1 "VCC" H 7400 5300 50  0000 C CNN
F 2 "" H 7400 5150 50  0001 C CNN
F 3 "" H 7400 5150 50  0001 C CNN
	1    7400 5150
	1    0    0    -1  
$EndComp
Wire Wire Line
	7400 5350 7200 5350
Connection ~ 7400 5350
Text Notes 6850 5050 0    60   ~ 0
OUT1\n
$Comp
L R R9
U 1 1 5B3E092F
P 7050 5350
F 0 "R9" V 7130 5350 50  0000 C CNN
F 1 "220" V 7050 5350 50  0000 C CNN
F 2 "Resistors_THT:R_Axial_DIN0204_L3.6mm_D1.6mm_P7.62mm_Horizontal" V 6980 5350 50  0001 C CNN
F 3 "" H 7050 5350 50  0001 C CNN
	1    7050 5350
	0    -1   -1   0   
$EndComp
Wire Wire Line
	6300 5350 6150 5350
NoConn ~ 6900 5150
NoConn ~ 6300 5150
$Comp
L GND #PWR09
U 1 1 5B3E1AF0
P 6600 6250
F 0 "#PWR09" H 6600 6000 50  0001 C CNN
F 1 "GND" H 6600 6100 50  0000 C CNN
F 2 "" H 6600 6250 50  0001 C CNN
F 3 "" H 6600 6250 50  0001 C CNN
	1    6600 6250
	1    0    0    -1  
$EndComp
$Comp
L 74HC14 U3
U 3 1 5B3E1AF6
P 5400 6050
F 0 "U3" H 5550 6150 50  0000 C CNN
F 1 "74HC14" H 5600 5950 50  0000 C CNN
F 2 "Housings_DIP:DIP-14_W7.62mm_Socket" H 5400 6050 50  0001 C CNN
F 3 "" H 5400 6050 50  0001 C CNN
	3    5400 6050
	1    0    0    -1  
$EndComp
Wire Wire Line
	4800 6050 4950 6050
$Comp
L R R5
U 1 1 5B3E1AFD
P 6000 6050
F 0 "R5" V 6080 6050 50  0000 C CNN
F 1 "220" V 6000 6050 50  0000 C CNN
F 2 "Resistors_THT:R_Axial_DIN0204_L3.6mm_D1.6mm_P7.62mm_Horizontal" V 5930 6050 50  0001 C CNN
F 3 "" H 6000 6050 50  0001 C CNN
	1    6000 6050
	0    -1   -1   0   
$EndComp
Wire Wire Line
	7400 6050 7200 6050
Text Notes 6850 5750 0    60   ~ 0
OUT2\n
$Comp
L R R10
U 1 1 5B3E1B0C
P 7050 6050
F 0 "R10" V 7130 6050 50  0000 C CNN
F 1 "220" V 7050 6050 50  0000 C CNN
F 2 "Resistors_THT:R_Axial_DIN0204_L3.6mm_D1.6mm_P7.62mm_Horizontal" V 6980 6050 50  0001 C CNN
F 3 "" H 7050 6050 50  0001 C CNN
	1    7050 6050
	0    -1   -1   0   
$EndComp
Wire Wire Line
	6300 6050 6150 6050
NoConn ~ 6900 5850
NoConn ~ 6300 5850
$Comp
L MIDI J3
U 1 1 5B3E220F
P 6600 5250
F 0 "J3" H 6725 5475 50  0000 C CNN
F 1 "MIDI" H 6600 5250 50  0000 C CNN
F 2 ".pretty:CUI_SDS-50J" H 6600 5250 50  0001 C CNN
F 3 "" H 6600 5250 50  0001 C CNN
	1    6600 5250
	-1   0    0    1   
$EndComp
$Comp
L MIDI J4
U 1 1 5B3E243F
P 6600 5950
F 0 "J4" H 6725 6175 50  0000 C CNN
F 1 "MIDI" H 6600 5950 50  0000 C CNN
F 2 ".pretty:CUI_SDS-50J" H 6600 5950 50  0001 C CNN
F 3 "" H 6600 5950 50  0001 C CNN
	1    6600 5950
	-1   0    0    1   
$EndComp
$Comp
L GND #PWR010
U 1 1 5B3E2AF5
P 6600 6950
F 0 "#PWR010" H 6600 6700 50  0001 C CNN
F 1 "GND" H 6600 6800 50  0000 C CNN
F 2 "" H 6600 6950 50  0001 C CNN
F 3 "" H 6600 6950 50  0001 C CNN
	1    6600 6950
	1    0    0    -1  
$EndComp
$Comp
L 74HC14 U3
U 4 1 5B3E2B01
P 5400 6750
F 0 "U3" H 5550 6850 50  0000 C CNN
F 1 "74HC14" H 5600 6650 50  0000 C CNN
F 2 "Housings_DIP:DIP-14_W7.62mm_Socket" H 5400 6750 50  0001 C CNN
F 3 "" H 5400 6750 50  0001 C CNN
	4    5400 6750
	1    0    0    -1  
$EndComp
Wire Wire Line
	4800 6750 4950 6750
$Comp
L R R6
U 1 1 5B3E2B08
P 6000 6750
F 0 "R6" V 6080 6750 50  0000 C CNN
F 1 "220" V 6000 6750 50  0000 C CNN
F 2 "Resistors_THT:R_Axial_DIN0204_L3.6mm_D1.6mm_P7.62mm_Horizontal" V 5930 6750 50  0001 C CNN
F 3 "" H 6000 6750 50  0001 C CNN
	1    6000 6750
	0    -1   -1   0   
$EndComp
Wire Wire Line
	7400 6750 7200 6750
Connection ~ 7400 6750
Text Notes 6850 6450 0    60   ~ 0
OUT3\n
$Comp
L R R11
U 1 1 5B3E2B18
P 7050 6750
F 0 "R11" V 7130 6750 50  0000 C CNN
F 1 "220" V 7050 6750 50  0000 C CNN
F 2 "Resistors_THT:R_Axial_DIN0204_L3.6mm_D1.6mm_P7.62mm_Horizontal" V 6980 6750 50  0001 C CNN
F 3 "" H 7050 6750 50  0001 C CNN
	1    7050 6750
	0    -1   -1   0   
$EndComp
Wire Wire Line
	6300 6750 6150 6750
NoConn ~ 6900 6550
NoConn ~ 6300 6550
$Comp
L GND #PWR011
U 1 1 5B3E2B21
P 6600 7650
F 0 "#PWR011" H 6600 7400 50  0001 C CNN
F 1 "GND" H 6600 7500 50  0000 C CNN
F 2 "" H 6600 7650 50  0001 C CNN
F 3 "" H 6600 7650 50  0001 C CNN
	1    6600 7650
	1    0    0    -1  
$EndComp
$Comp
L 74HC14 U3
U 5 1 5B3E2B27
P 5400 7450
F 0 "U3" H 5550 7550 50  0000 C CNN
F 1 "74HC14" H 5600 7350 50  0000 C CNN
F 2 "Housings_DIP:DIP-14_W7.62mm_Socket" H 5400 7450 50  0001 C CNN
F 3 "" H 5400 7450 50  0001 C CNN
	5    5400 7450
	1    0    0    -1  
$EndComp
Wire Wire Line
	4800 7450 4950 7450
$Comp
L R R7
U 1 1 5B3E2B2E
P 6000 7450
F 0 "R7" V 6080 7450 50  0000 C CNN
F 1 "220" V 6000 7450 50  0000 C CNN
F 2 "Resistors_THT:R_Axial_DIN0204_L3.6mm_D1.6mm_P7.62mm_Horizontal" V 5930 7450 50  0001 C CNN
F 3 "" H 6000 7450 50  0001 C CNN
	1    6000 7450
	0    -1   -1   0   
$EndComp
Wire Wire Line
	7400 7450 7200 7450
Text Notes 6850 7150 0    60   ~ 0
OUT4\n
$Comp
L R R12
U 1 1 5B3E2B36
P 7050 7450
F 0 "R12" V 7130 7450 50  0000 C CNN
F 1 "220" V 7050 7450 50  0000 C CNN
F 2 "Resistors_THT:R_Axial_DIN0204_L3.6mm_D1.6mm_P7.62mm_Horizontal" V 6980 7450 50  0001 C CNN
F 3 "" H 7050 7450 50  0001 C CNN
	1    7050 7450
	0    -1   -1   0   
$EndComp
Wire Wire Line
	6300 7450 6150 7450
NoConn ~ 6900 7250
NoConn ~ 6300 7250
$Comp
L MIDI J5
U 1 1 5B3E2B3F
P 6600 6650
F 0 "J5" H 6725 6875 50  0000 C CNN
F 1 "MIDI" H 6600 6650 50  0000 C CNN
F 2 ".pretty:CUI_SDS-50J" H 6600 6650 50  0001 C CNN
F 3 "" H 6600 6650 50  0001 C CNN
	1    6600 6650
	-1   0    0    1   
$EndComp
$Comp
L MIDI J6
U 1 1 5B3E2B45
P 6600 7350
F 0 "J6" H 6725 7575 50  0000 C CNN
F 1 "MIDI" H 6600 7350 50  0000 C CNN
F 2 ".pretty:CUI_SDS-50J" H 6600 7350 50  0001 C CNN
F 3 "" H 6600 7350 50  0001 C CNN
	1    6600 7350
	-1   0    0    1   
$EndComp
Wire Wire Line
	4800 5350 4800 8200
Connection ~ 4800 6050
Connection ~ 4800 6750
$Comp
L GND #PWR012
U 1 1 5B3E33A3
P 6600 8400
F 0 "#PWR012" H 6600 8150 50  0001 C CNN
F 1 "GND" H 6600 8250 50  0000 C CNN
F 2 "" H 6600 8400 50  0001 C CNN
F 3 "" H 6600 8400 50  0001 C CNN
	1    6600 8400
	1    0    0    -1  
$EndComp
$Comp
L 74HC14 U3
U 6 1 5B3E33A9
P 5400 8200
F 0 "U3" H 5550 8300 50  0000 C CNN
F 1 "74HC14" H 5600 8100 50  0000 C CNN
F 2 "Housings_DIP:DIP-14_W7.62mm_Socket" H 5400 8200 50  0001 C CNN
F 3 "" H 5400 8200 50  0001 C CNN
	6    5400 8200
	1    0    0    -1  
$EndComp
Wire Wire Line
	4800 8200 4950 8200
$Comp
L R R8
U 1 1 5B3E33B0
P 6000 8200
F 0 "R8" V 6080 8200 50  0000 C CNN
F 1 "220" V 6000 8200 50  0000 C CNN
F 2 "Resistors_THT:R_Axial_DIN0204_L3.6mm_D1.6mm_P7.62mm_Horizontal" V 5930 8200 50  0001 C CNN
F 3 "" H 6000 8200 50  0001 C CNN
	1    6000 8200
	0    -1   -1   0   
$EndComp
Wire Wire Line
	7400 8200 7200 8200
Text Notes 6850 7900 0    60   ~ 0
OUT5\n
$Comp
L R R13
U 1 1 5B3E33B8
P 7050 8200
F 0 "R13" V 7130 8200 50  0000 C CNN
F 1 "220" V 7050 8200 50  0000 C CNN
F 2 "Resistors_THT:R_Axial_DIN0204_L3.6mm_D1.6mm_P7.62mm_Horizontal" V 6980 8200 50  0001 C CNN
F 3 "" H 7050 8200 50  0001 C CNN
	1    7050 8200
	0    -1   -1   0   
$EndComp
Wire Wire Line
	6300 8200 6150 8200
NoConn ~ 6900 8000
NoConn ~ 6300 8000
$Comp
L MIDI J7
U 1 1 5B3E33C1
P 6600 8100
F 0 "J7" H 6725 8325 50  0000 C CNN
F 1 "MIDI" H 6600 8100 50  0000 C CNN
F 2 ".pretty:CUI_SDS-50J" H 6600 8100 50  0001 C CNN
F 3 "" H 6600 8100 50  0001 C CNN
	1    6600 8100
	-1   0    0    1   
$EndComp
Connection ~ 4800 7450
Wire Wire Line
	7400 5150 7400 8200
Connection ~ 7400 6050
Connection ~ 7400 7450
$Comp
L C C2
U 1 1 5B3E4333
P 4350 6400
F 0 "C2" H 4375 6500 50  0000 L CNN
F 1 "100n" H 4375 6300 50  0000 L CNN
F 2 "Capacitors_THT:C_Rect_L4.0mm_W2.5mm_P2.50mm" H 4388 6250 50  0001 C CNN
F 3 "" H 4350 6400 50  0001 C CNN
	1    4350 6400
	1    0    0    -1  
$EndComp
$Comp
L GND #PWR013
U 1 1 5B3E50F4
P 4350 6550
F 0 "#PWR013" H 4350 6300 50  0001 C CNN
F 1 "GND" H 4350 6400 50  0000 C CNN
F 2 "" H 4350 6550 50  0001 C CNN
F 3 "" H 4350 6550 50  0001 C CNN
	1    4350 6550
	1    0    0    -1  
$EndComp
$Comp
L VCC #PWR014
U 1 1 5B3E59CD
P 4350 6250
F 0 "#PWR014" H 4350 6100 50  0001 C CNN
F 1 "VCC" H 4350 6400 50  0000 C CNN
F 2 "" H 4350 6250 50  0001 C CNN
F 3 "" H 4350 6250 50  0001 C CNN
	1    4350 6250
	1    0    0    -1  
$EndComp
NoConn ~ 2400 5150
$Comp
L 78L05-RESCUE-Thru5 U2
U 1 1 5B40F027
P 3150 8050
F 0 "U2" H 3300 7854 50  0000 C CNN
F 1 "78L05" H 3150 8250 50  0000 C CNN
F 2 "TO_SOT_Packages_THT:TO-92_Inline_Wide" H 3150 8050 50  0001 C CNN
F 3 "" H 3150 8050 50  0001 C CNN
	1    3150 8050
	1    0    0    -1  
$EndComp
Text Notes 1150 8950 0    60   ~ 0
9V -(o+)
Text Notes 2750 7750 0    60   ~ 0
Voltage regulator\n
$EndSCHEMATC
