(export (version D)
  (design
    (source C:/Users/Quentin/QUEntin/TRONIQUE/KICAD/Thru5/Thru5.sch)
    (date "2018-07-07 11:18:23 PM")
    (tool "Eeschema 4.0.6")
    (sheet (number 1) (name /) (tstamps /)
      (title_block
        (title Midi_Thru_5_v1)
        (company qusw)
        (rev 0)
        (date 2017-10-17)
        (source Thru5.sch)
        (comment (number 1) (value ""))
        (comment (number 2) (value ""))
        (comment (number 3) (value ""))
        (comment (number 4) (value "")))))
  (components
    (comp (ref U1)
      (value 6N138)
      (footprint Housings_DIP:DIP-8_W7.62mm_Socket)
      (libsource (lib Thru5-cache) (part 6N136-RESCUE-Thru5))
      (sheetpath (names /) (tstamps /))
      (tstamp 59E763B6))
    (comp (ref D2)
      (value 1N4148)
      (footprint Diodes_THT:D_DO-35_SOD27_P7.62mm_Horizontal)
      (libsource (lib device) (part D))
      (sheetpath (names /) (tstamps /))
      (tstamp 59E765FD))
    (comp (ref R1)
      (value 220)
      (footprint Resistors_THT:R_Axial_DIN0207_L6.3mm_D2.5mm_P10.16mm_Horizontal)
      (libsource (lib device) (part R))
      (sheetpath (names /) (tstamps /))
      (tstamp 59E76A76))
    (comp (ref R3)
      (value 470)
      (footprint Resistors_THT:R_Axial_DIN0207_L6.3mm_D2.5mm_P10.16mm_Horizontal)
      (libsource (lib device) (part R))
      (sheetpath (names /) (tstamps /))
      (tstamp 59E76DA2))
    (comp (ref R2)
      (value 4.7k)
      (footprint Resistors_THT:R_Axial_DIN0207_L6.3mm_D2.5mm_P10.16mm_Horizontal)
      (libsource (lib device) (part R))
      (sheetpath (names /) (tstamps /))
      (tstamp 59E69FEB))
    (comp (ref C1)
      (value 100u)
      (footprint Capacitors_THT:CP_Radial_D6.3mm_P2.50mm)
      (libsource (lib device) (part CP1))
      (sheetpath (names /) (tstamps /))
      (tstamp 59E7CCA8))
    (comp (ref C3)
      (value 100u)
      (footprint Capacitors_THT:CP_Radial_D6.3mm_P2.50mm)
      (libsource (lib device) (part CP1))
      (sheetpath (names /) (tstamps /))
      (tstamp 59E7CDED))
    (comp (ref J1)
      (value Jack-DC)
      (footprint PJ-102A:CUI_PJ-102A)
      (libsource (lib Thru5-cache) (part Jack-DC))
      (sheetpath (names /) (tstamps /))
      (tstamp 59E7F1C8))
    (comp (ref C4)
      (value 100n)
      (footprint Capacitors_THT:C_Rect_L4.0mm_W2.5mm_P2.50mm)
      (libsource (lib device) (part C))
      (sheetpath (names /) (tstamps /))
      (tstamp 5B3D3BC3))
    (comp (ref D1)
      (value 1N4004)
      (footprint Diodes_THT:D_DO-41_SOD81_P7.62mm_Horizontal)
      (libsource (lib device) (part D))
      (sheetpath (names /) (tstamps /))
      (tstamp 59E7DF9A))
    (comp (ref U3)
      (value 74HC14)
      (footprint Housings_DIP:DIP-14_W7.62mm_Socket)
      (libsource (lib 74xx) (part 74HC14))
      (sheetpath (names /) (tstamps /))
      (tstamp 5B3D6618))
    (comp (ref R4)
      (value 220)
      (footprint Resistors_THT:R_Axial_DIN0204_L3.6mm_D1.6mm_P7.62mm_Horizontal)
      (libsource (lib device) (part R))
      (sheetpath (names /) (tstamps /))
      (tstamp 5B3D768D))
    (comp (ref J2)
      (value MIDI)
      (footprint .pretty:CUI_SDS-50J)
      (libsource (lib Thru5-cache) (part MIDI))
      (sheetpath (names /) (tstamps /))
      (tstamp 5B3DB71C))
    (comp (ref R9)
      (value 220)
      (footprint Resistors_THT:R_Axial_DIN0204_L3.6mm_D1.6mm_P7.62mm_Horizontal)
      (libsource (lib device) (part R))
      (sheetpath (names /) (tstamps /))
      (tstamp 5B3E092F))
    (comp (ref R5)
      (value 220)
      (footprint Resistors_THT:R_Axial_DIN0204_L3.6mm_D1.6mm_P7.62mm_Horizontal)
      (libsource (lib device) (part R))
      (sheetpath (names /) (tstamps /))
      (tstamp 5B3E1AFD))
    (comp (ref R10)
      (value 220)
      (footprint Resistors_THT:R_Axial_DIN0204_L3.6mm_D1.6mm_P7.62mm_Horizontal)
      (libsource (lib device) (part R))
      (sheetpath (names /) (tstamps /))
      (tstamp 5B3E1B0C))
    (comp (ref J3)
      (value MIDI)
      (footprint .pretty:CUI_SDS-50J)
      (libsource (lib Thru5-cache) (part MIDI))
      (sheetpath (names /) (tstamps /))
      (tstamp 5B3E220F))
    (comp (ref J4)
      (value MIDI)
      (footprint .pretty:CUI_SDS-50J)
      (libsource (lib Thru5-cache) (part MIDI))
      (sheetpath (names /) (tstamps /))
      (tstamp 5B3E243F))
    (comp (ref R6)
      (value 220)
      (footprint Resistors_THT:R_Axial_DIN0204_L3.6mm_D1.6mm_P7.62mm_Horizontal)
      (libsource (lib device) (part R))
      (sheetpath (names /) (tstamps /))
      (tstamp 5B3E2B08))
    (comp (ref R11)
      (value 220)
      (footprint Resistors_THT:R_Axial_DIN0204_L3.6mm_D1.6mm_P7.62mm_Horizontal)
      (libsource (lib device) (part R))
      (sheetpath (names /) (tstamps /))
      (tstamp 5B3E2B18))
    (comp (ref R7)
      (value 220)
      (footprint Resistors_THT:R_Axial_DIN0204_L3.6mm_D1.6mm_P7.62mm_Horizontal)
      (libsource (lib device) (part R))
      (sheetpath (names /) (tstamps /))
      (tstamp 5B3E2B2E))
    (comp (ref R12)
      (value 220)
      (footprint Resistors_THT:R_Axial_DIN0204_L3.6mm_D1.6mm_P7.62mm_Horizontal)
      (libsource (lib device) (part R))
      (sheetpath (names /) (tstamps /))
      (tstamp 5B3E2B36))
    (comp (ref J5)
      (value MIDI)
      (footprint .pretty:CUI_SDS-50J)
      (libsource (lib Thru5-cache) (part MIDI))
      (sheetpath (names /) (tstamps /))
      (tstamp 5B3E2B3F))
    (comp (ref J6)
      (value MIDI)
      (footprint .pretty:CUI_SDS-50J)
      (libsource (lib Thru5-cache) (part MIDI))
      (sheetpath (names /) (tstamps /))
      (tstamp 5B3E2B45))
    (comp (ref R8)
      (value 220)
      (footprint Resistors_THT:R_Axial_DIN0204_L3.6mm_D1.6mm_P7.62mm_Horizontal)
      (libsource (lib device) (part R))
      (sheetpath (names /) (tstamps /))
      (tstamp 5B3E33B0))
    (comp (ref R13)
      (value 220)
      (footprint Resistors_THT:R_Axial_DIN0204_L3.6mm_D1.6mm_P7.62mm_Horizontal)
      (libsource (lib device) (part R))
      (sheetpath (names /) (tstamps /))
      (tstamp 5B3E33B8))
    (comp (ref J7)
      (value MIDI)
      (footprint .pretty:CUI_SDS-50J)
      (libsource (lib Thru5-cache) (part MIDI))
      (sheetpath (names /) (tstamps /))
      (tstamp 5B3E33C1))
    (comp (ref C2)
      (value 100n)
      (footprint Capacitors_THT:C_Rect_L4.0mm_W2.5mm_P2.50mm)
      (libsource (lib device) (part C))
      (sheetpath (names /) (tstamps /))
      (tstamp 5B3E4333))
    (comp (ref U2)
      (value 78L05)
      (footprint TO_SOT_Packages_THT:TO-92_Inline_Wide)
      (libsource (lib Thru5-rescue) (part 78L05-RESCUE-Thru5))
      (sheetpath (names /) (tstamps /))
      (tstamp 5B40F027)))
  (libparts
    (libpart (lib Thru5-cache) (part 6N136-RESCUE-Thru5)
      (footprints
        (fp DIP*W7.62mm*))
      (fields
        (field (name Reference) U)
        (field (name Value) 6N136-RESCUE-Thru5)
        (field (name Footprint) Housings_DIP:DIP-8_W7.62mm))
      (pins
        (pin (num 1) (name NC) (type NotConnected))
        (pin (num 2) (name ~) (type passive))
        (pin (num 3) (name ~) (type passive))
        (pin (num 4) (name NC) (type NotConnected))
        (pin (num 5) (name ~) (type passive))
        (pin (num 6) (name ~) (type passive))
        (pin (num 7) (name ~) (type passive))
        (pin (num 8) (name ~) (type passive))))
    (libpart (lib 74xx) (part 74HCT04)
      (aliases
        (alias 74HC14)
        (alias 74HC04)
        (alias 74LS14))
      (description "Hex Inverseur")
      (fields
        (field (name Reference) U)
        (field (name Value) 74HCT04))
      (pins
        (pin (num 1) (name ~) (type input))
        (pin (num 2) (name ~) (type output))
        (pin (num 3) (name ~) (type input))
        (pin (num 4) (name ~) (type output))
        (pin (num 5) (name ~) (type input))
        (pin (num 6) (name ~) (type output))
        (pin (num 7) (name GND) (type power_in))
        (pin (num 8) (name ~) (type output))
        (pin (num 9) (name ~) (type input))
        (pin (num 10) (name ~) (type output))
        (pin (num 11) (name ~) (type input))
        (pin (num 12) (name ~) (type output))
        (pin (num 13) (name ~) (type input))
        (pin (num 14) (name VCC) (type power_in))))
    (libpart (lib Thru5-rescue) (part 78L05-RESCUE-Thru5)
      (fields
        (field (name Reference) U)
        (field (name Value) 78L05-RESCUE-Thru5))
      (pins
        (pin (num 1) (name VO) (type power_out))
        (pin (num 2) (name GND) (type input))
        (pin (num 3) (name VI) (type input))))
    (libpart (lib Thru5-cache) (part Barrel_Jack)
      (aliases
        (alias Jack-DC))
      (fields
        (field (name Reference) J)
        (field (name Value) Barrel_Jack))
      (pins
        (pin (num 1) (name ~) (type passive))
        (pin (num 2) (name ~) (type passive))
        (pin (num 3) (name ~) (type passive))))
    (libpart (lib device) (part C)
      (description "Unpolarized capacitor")
      (footprints
        (fp C_*))
      (fields
        (field (name Reference) C)
        (field (name Value) C))
      (pins
        (pin (num 1) (name ~) (type passive))
        (pin (num 2) (name ~) (type passive))))
    (libpart (lib device) (part CP1)
      (description "Polarised capacitor")
      (footprints
        (fp CP_*))
      (fields
        (field (name Reference) C)
        (field (name Value) CP1))
      (pins
        (pin (num 1) (name ~) (type passive))
        (pin (num 2) (name ~) (type passive))))
    (libpart (lib device) (part D)
      (description Diode)
      (footprints
        (fp TO-???*)
        (fp *SingleDiode)
        (fp *_Diode_*)
        (fp *SingleDiode*)
        (fp D_*))
      (fields
        (field (name Reference) D)
        (field (name Value) D))
      (pins
        (pin (num 1) (name K) (type passive))
        (pin (num 2) (name A) (type passive))))
    (libpart (lib Thru5-cache) (part MIDI)
      (footprints
        (fp DIN*))
      (fields
        (field (name Reference) J)
        (field (name Value) MIDI))
      (pins
        (pin (num 1) (name ~) (type passive))
        (pin (num 2) (name ~) (type passive))
        (pin (num 3) (name ~) (type passive))
        (pin (num 4) (name ~) (type passive))
        (pin (num 5) (name ~) (type passive))))
    (libpart (lib device) (part R)
      (description Resistor)
      (footprints
        (fp R_*)
        (fp R_*))
      (fields
        (field (name Reference) R)
        (field (name Value) R))
      (pins
        (pin (num 1) (name ~) (type passive))
        (pin (num 2) (name ~) (type passive)))))
  (libraries
    (library (logical 74xx)
      (uri "C:\\Program Files\\KiCad\\share\\kicad\\library\\74xx.lib"))
    (library (logical Thru5-rescue)
      (uri C:\Users\Quentin\QUEntin\TRONIQUE\KICAD\Thru5\Thru5-rescue.lib))
    (library (logical device)
      (uri "C:\\Program Files\\KiCad\\share\\kicad\\library\\device.lib"))
    (library (logical Thru5-cache)
      (uri C:\Users\Quentin\QUEntin\TRONIQUE\KICAD\Thru5\Thru5-cache.lib)))
  (nets
    (net (code 1) (name GND)
      (node (ref C4) (pin 2))
      (node (ref J1) (pin 2))
      (node (ref J6) (pin 2))
      (node (ref J5) (pin 2))
      (node (ref U2) (pin 2))
      (node (ref C2) (pin 2))
      (node (ref J7) (pin 2))
      (node (ref J4) (pin 2))
      (node (ref J3) (pin 2))
      (node (ref U3) (pin 7))
      (node (ref C3) (pin 2))
      (node (ref C1) (pin 2))
      (node (ref R2) (pin 2))
      (node (ref U1) (pin 5)))
    (net (code 2) (name VCC)
      (node (ref R12) (pin 2))
      (node (ref U2) (pin 1))
      (node (ref C3) (pin 1))
      (node (ref R3) (pin 1))
      (node (ref U1) (pin 8))
      (node (ref U3) (pin 14))
      (node (ref C4) (pin 1))
      (node (ref R13) (pin 2))
      (node (ref R11) (pin 2))
      (node (ref R10) (pin 2))
      (node (ref R9) (pin 2))
      (node (ref C2) (pin 1)))
    (net (code 3) (name "Net-(R6-Pad1)")
      (node (ref U3) (pin 8))
      (node (ref R6) (pin 1)))
    (net (code 4) (name "Net-(J5-Pad5)")
      (node (ref R6) (pin 2))
      (node (ref J5) (pin 5)))
    (net (code 5) (name "Net-(J5-Pad4)")
      (node (ref J5) (pin 4))
      (node (ref R11) (pin 1)))
    (net (code 6) (name "Net-(J5-Pad1)")
      (node (ref J5) (pin 1)))
    (net (code 7) (name "Net-(J5-Pad3)")
      (node (ref J5) (pin 3)))
    (net (code 8) (name "Net-(R7-Pad1)")
      (node (ref R7) (pin 1))
      (node (ref U3) (pin 10)))
    (net (code 9) (name "Net-(J4-Pad4)")
      (node (ref J4) (pin 4))
      (node (ref R10) (pin 1)))
    (net (code 10) (name "Net-(J3-Pad3)")
      (node (ref J3) (pin 3)))
    (net (code 11) (name "Net-(R5-Pad1)")
      (node (ref R5) (pin 1))
      (node (ref U3) (pin 6)))
    (net (code 12) (name "Net-(J4-Pad5)")
      (node (ref J4) (pin 5))
      (node (ref R5) (pin 2)))
    (net (code 13) (name "Net-(J6-Pad5)")
      (node (ref R7) (pin 2))
      (node (ref J6) (pin 5)))
    (net (code 14) (name "Net-(J4-Pad1)")
      (node (ref J4) (pin 1)))
    (net (code 15) (name "Net-(J4-Pad3)")
      (node (ref J4) (pin 3)))
    (net (code 16) (name "Net-(J3-Pad1)")
      (node (ref J3) (pin 1)))
    (net (code 17) (name "Net-(J3-Pad4)")
      (node (ref J3) (pin 4))
      (node (ref R9) (pin 1)))
    (net (code 18) (name "Net-(R8-Pad1)")
      (node (ref U3) (pin 12))
      (node (ref R8) (pin 1)))
    (net (code 19) (name "Net-(J7-Pad5)")
      (node (ref J7) (pin 5))
      (node (ref R8) (pin 2)))
    (net (code 20) (name "Net-(J7-Pad4)")
      (node (ref J7) (pin 4))
      (node (ref R13) (pin 1)))
    (net (code 21) (name "Net-(J7-Pad1)")
      (node (ref J7) (pin 1)))
    (net (code 22) (name "Net-(J7-Pad3)")
      (node (ref J7) (pin 3)))
    (net (code 23) (name "Net-(J2-Pad2)")
      (node (ref J2) (pin 2)))
    (net (code 24) (name "Net-(J6-Pad3)")
      (node (ref J6) (pin 3)))
    (net (code 25) (name "Net-(J6-Pad4)")
      (node (ref R12) (pin 1))
      (node (ref J6) (pin 4)))
    (net (code 26) (name "Net-(J6-Pad1)")
      (node (ref J6) (pin 1)))
    (net (code 27) (name "Net-(D1-Pad2)")
      (node (ref D1) (pin 2))
      (node (ref J1) (pin 1)))
    (net (code 28) (name "Net-(J1-Pad3)")
      (node (ref J1) (pin 3)))
    (net (code 30) (name "Net-(J2-Pad3)")
      (node (ref J2) (pin 3)))
    (net (code 31) (name "Net-(D2-Pad1)")
      (node (ref U1) (pin 2))
      (node (ref D2) (pin 1))
      (node (ref R1) (pin 1)))
    (net (code 32) (name "Net-(R2-Pad1)")
      (node (ref U1) (pin 7))
      (node (ref R2) (pin 1)))
    (net (code 33) (name "Net-(R3-Pad2)")
      (node (ref U3) (pin 1))
      (node (ref U1) (pin 6))
      (node (ref R3) (pin 2)))
    (net (code 34) (name "Net-(U1-Pad1)")
      (node (ref U1) (pin 1)))
    (net (code 35) (name "Net-(U1-Pad4)")
      (node (ref U1) (pin 4)))
    (net (code 36) (name "Net-(D2-Pad2)")
      (node (ref D2) (pin 2))
      (node (ref J2) (pin 5))
      (node (ref U1) (pin 3)))
    (net (code 37) (name "Net-(J2-Pad4)")
      (node (ref R1) (pin 2))
      (node (ref J2) (pin 4)))
    (net (code 38) (name "Net-(J2-Pad1)")
      (node (ref J2) (pin 1)))
    (net (code 39) (name "Net-(U3-Pad11)")
      (node (ref U3) (pin 13))
      (node (ref U3) (pin 2))
      (node (ref U3) (pin 11))
      (node (ref U3) (pin 3))
      (node (ref U3) (pin 9))
      (node (ref U3) (pin 5)))
    (net (code 40) (name "Net-(R4-Pad1)")
      (node (ref R4) (pin 1))
      (node (ref U3) (pin 4)))
    (net (code 41) (name "Net-(J3-Pad5)")
      (node (ref J3) (pin 5))
      (node (ref R4) (pin 2)))
    (net (code 42) (name "Net-(C1-Pad1)")
      (node (ref U2) (pin 3))
      (node (ref D1) (pin 1))
      (node (ref C1) (pin 1)))))